{
  "questions": [
    {
      "question_id": 7725937,
      "title": "投稿４",
      "body": "投稿４",
      "is_closed": false,
      "has_best_answer": false,
      "need_level": 2,
      "answer_count": 2,
      "create_datetime": "2020-11-19 14:49:15",
      "is_supported": false,
      "user_id": 2340010,
      "username": "oktest3",
      "category_id": 910,
      "category_name": "docomo"
    },
    {
      "question_id": 7725936,
      "title": "投稿３",
      "body": "投稿３",
      "is_closed": false,
      "has_best_answer": false,
      "need_level": 3,
      "answer_count": 2,
      "create_datetime": "2020-11-19 14:48:41",
      "is_supported": false,
      "user_id": 2314388,
      "username": "oshirase11",
      "category_id": 910,
      "category_name": "docomo"
    },
    {
      "question_id": 7725935,
      "title": "投稿２",
      "body": "投稿２\n\n※OKWAVEより補足：「株式会社A電気」についての質問です。",
      "is_closed": false,
      "has_best_answer": false,
      "need_level": 1,
      "answer_count": 1,
      "create_datetime": "2020-11-19 14:48:12",
      "is_supported": false,
      "user_id": 2340010,
      "username": "oktest3",
      "category_id": 456,
      "category_name": "Bluray・DVDプレーヤー・レコーダー"
    },
    {
      "question_id": 7725934,
      "title": "投稿１",
      "body": "投稿１\n\n※OKWAVEより補足：「株式会社A電気」についての質問です。",
      "is_closed": false,
      "has_best_answer": false,
      "need_level": 2,
      "answer_count": 1,
      "create_datetime": "2020-11-19 14:47:22",
      "is_supported": false,
      "user_id": 2314388,
      "username": "oshirase11",
      "category_id": 457,
      "category_name": "デジタルカメラ・フィルムカメラ"
    },
    {
      "question_id": 7725933,
      "title": "NGなURL",
      "body": "https://stg01.okwave.jp/mypage.exe.html",
      "is_closed": false,
      "has_best_answer": false,
      "need_level": 2,
      "answer_count": 0,
      "create_datetime": "2020-11-19 13:55:26",
      "is_supported": true,
      "user_id": 2340803,
      "username": "tokumaru666",
      "category_id": 256,
      "category_name": "PHP"
    },
    {
      "question_id": 7725932,
      "title": "お野菜巻いといで",
      "body": "パケット通信料\nが激高\n\n※OKWAVEより補足：「UQ WiMAX」についての質問です。",
      "is_closed": true,
      "has_best_answer": true,
      "need_level": 1,
      "answer_count": 2,
      "create_datetime": "2020-11-19 13:21:49",
      "is_supported": false,
      "user_id": 2340010,
      "username": "oktest3",
      "category_id": 262,
      "category_name": "その他（スマートフォン・携帯・タブレット）"
    },
    {
      "question_id": 7725931,
      "title": "クレカ番号大公開",
      "body": "本邦初公開\n4123-5678-9012-3456",
      "is_closed": true,
      "has_best_answer": false,
      "need_level": 2,
      "answer_count": 0,
      "create_datetime": "2020-11-19 11:20:37",
      "is_supported": false,
      "user_id": 2340803,
      "username": "tokumaru666",
      "category_id": 524,
      "category_name": "手芸・裁縫"
    },
    {
      "question_id": 7725930,
      "title": "ダイジェストメールが拾われる",
      "body": "バッチで拾われる",
      "is_closed": false,
      "has_best_answer": false,
      "need_level": 2,
      "answer_count": 0,
      "create_datetime": "2020-11-19 10:44:23",
      "is_supported": false,
      "user_id": 2340803,
      "username": "tokumaru666",
      "category_id": 517,
      "category_name": "このQ&Aコミュニティーについて"
    },
    {
      "question_id": 7725929,
      "title": "フィルターとメールのテスト",
      "body": "これはフィルターNGにならない質問です。\nどなたか回答をお願いします。",
      "is_closed": false,
      "has_best_answer": false,
      "need_level": 2,
      "answer_count": 1,
      "create_datetime": "2020-11-19 10:40:17",
      "is_supported": false,
      "user_id": 2340341,
      "username": "test_dev02",
      "category_id": 450,
      "category_name": "国産車"
    },
    {
      "question_id": 7725928,
      "title": "はぶあぐったいむぅ",
      "body": "エレクトリックパレードとUQの関係についておしえて\n\n※OKWAVEより補足：「UQ WiMAX」についての質問です。",
      "is_closed": false,
      "has_best_answer": false,
      "need_level": 3,
      "answer_count": 1,
      "create_datetime": "2020-11-19 10:29:43",
      "is_supported": false,
      "user_id": 2343021,
      "username": "oktest2",
      "category_id": 956,
      "category_name": "Wi-Fi・無線LAN"
    }
  ],
  "total_count": 6361941,
  "result_count": 10,
  "result_range": [
    1,
    10
  ],
  "last_page": 1000,
  "current_page": 1
}
